%YAML 1.1
%TAG !u! tag:unity3d.com,2011:
--- !u!29 &1
OcclusionCullingSettings:
  m_ObjectHideFlags: 0
  serializedVersion: 2
  m_OcclusionBakeSettings:
    smallestOccluder: 5
    smallestHole: 0.25
    backfaceThreshold: 100
  m_SceneGUID: 00000000000000000000000000000000
  m_OcclusionCullingData: {fileID: 0}
--- !u!104 &2
RenderSettings:
  m_ObjectHideFlags: 0
  serializedVersion: 9
  m_Fog: 0
  m_FogColor: {r: 0.5, g: 0.5, b: 0.5, a: 1}
  m_FogMode: 3
  m_FogDensity: 0.01
  m_LinearFogStart: 0
  m_LinearFogEnd: 300
  m_AmbientSkyColor: {r: 0, g: 0, b: 0, a: 0}
  m_AmbientEquatorColor: {r: 0.114, g: 0.125, b: 0.133, a: 1}
  m_AmbientGroundColor: {r: 0.047, g: 0.043, b: 0.035, a: 1}
  m_AmbientIntensity: 1
  m_AmbientMode: 0
  m_SubtractiveShadowColor: {r: 0.42, g: 0.478, b: 0.627, a: 1}
  m_SkyboxMaterial: {fileID: 0}
  m_HaloStrength: 0.5
  m_FlareStrength: 1
  m_FlareFadeSpeed: 3
  m_HaloTexture: {fileID: 0}
  m_SpotCookie: {fileID: 10001, guid: 0000000000000000e000000000000000, type: 0}
  m_DefaultReflectionMode: 0
  m_DefaultReflectionResolution: 128
  m_ReflectionBounces: 1
  m_ReflectionIntensity: 1
  m_CustomReflection: {fileID: 0}
  m_Sun: {fileID: 0}
  m_IndirectSpecularColor: {r: 0, g: 0, b: 0, a: 1}
  m_UseRadianceAmbientProbe: 0
--- !u!157 &4
LightmapSettings:
  m_ObjectHideFlags: 0
  serializedVersion: 11
  m_GIWorkflowMode: 0
  m_GISettings:
    serializedVersion: 2
    m_BounceScale: 1
    m_IndirectOutputScale: 1
    m_AlbedoBoost: 1
    m_TemporalCoherenceThreshold: 1
    m_EnvironmentLightingMode: 0
    m_EnableBakedLightmaps: 1
    m_EnableRealtimeLightmaps: 1
  m_LightmapEditorSettings:
    serializedVersion: 10
    m_Resolution: 2
    m_BakeResolution: 40
    m_AtlasSize: 1024
    m_AO: 0
    m_AOMaxDistance: 1
    m_CompAOExponent: 0
    m_CompAOExponentDirect: 0
    m_Padding: 2
    m_LightmapParameters: {fileID: 0}
    m_LightmapsBakeMode: 1
    m_TextureCompression: 1
    m_FinalGather: 0
    m_FinalGatherFiltering: 1
    m_FinalGatherRayCount: 1024
    m_ReflectionCompression: 2
    m_MixedBakeMode: 1
    m_BakeBackend: 0
    m_PVRSampling: 1
    m_PVRDirectSampleCount: 32
    m_PVRSampleCount: 500
    m_PVRBounces: 2
    m_PVRFilterTypeDirect: 0
    m_PVRFilterTypeIndirect: 0
    m_PVRFilterTypeAO: 0
    m_PVRFilteringMode: 0
    m_PVRCulling: 1
    m_PVRFilteringGaussRadiusDirect: 1
    m_PVRFilteringGaussRadiusIndirect: 5
    m_PVRFilteringGaussRadiusAO: 2
    m_PVRFilteringAtrousPositionSigmaDirect: 0.5
    m_PVRFilteringAtrousPositionSigmaIndirect: 2
    m_PVRFilteringAtrousPositionSigmaAO: 1
    m_ShowResolutionOverlay: 1
  m_LightingDataAsset: {fileID: 0}
  m_UseShadowmask: 0
--- !u!196 &5
NavMeshSettings:
  serializedVersion: 2
  m_ObjectHideFlags: 0
  m_BuildSettings:
    serializedVersion: 2
    agentTypeID: 0
    agentRadius: 0.5
    agentHeight: 2
    agentSlope: 45
    agentClimb: 0.4
    ledgeDropHeight: 0
    maxJumpAcrossDistance: 0
    minRegionArea: 2
    manualCellSize: 0
    cellSize: 0.16666667
    manualTileSize: 0
    tileSize: 256
    accuratePlacement: 0
    debug:
      m_Flags: 0
  m_NavMeshData: {fileID: 0}
--- !u!1 &78842933
GameObject:
  m_ObjectHideFlags: 0
  m_CorrespondingSourceObject: {fileID: 0}
  m_PrefabInternal: {fileID: 0}
  serializedVersion: 6
  m_Component:
  - component: {fileID: 78842938}
  - component: {fileID: 78842937}
  - component: {fileID: 78842936}
  - component: {fileID: 78842935}
  - component: {fileID: 78842934}
  - component: {fileID: 78842939}
  m_Layer: 0
  m_Name: Main Camera
  m_TagString: MainCamera
  m_Icon: {fileID: 0}
  m_NavMeshLayer: 0
  m_StaticEditorFlags: 0
  m_IsActive: 1
--- !u!81 &78842934
AudioListener:
  m_ObjectHideFlags: 0
  m_CorrespondingSourceObject: {fileID: 0}
  m_PrefabInternal: {fileID: 0}
  m_GameObject: {fileID: 78842933}
  m_Enabled: 1
--- !u!124 &78842935
Behaviour:
  m_ObjectHideFlags: 0
  m_CorrespondingSourceObject: {fileID: 0}
  m_PrefabInternal: {fileID: 0}
  m_GameObject: {fileID: 78842933}
  m_Enabled: 1
--- !u!92 &78842936
Behaviour:
  m_ObjectHideFlags: 0
  m_CorrespondingSourceObject: {fileID: 0}
  m_PrefabInternal: {fileID: 0}
  m_GameObject: {fileID: 78842933}
  m_Enabled: 1
--- !u!20 &78842937
Camera:
  m_ObjectHideFlags: 0
  m_CorrespondingSourceObject: {fileID: 0}
  m_PrefabInternal: {fileID: 0}
  m_GameObject: {fileID: 78842933}
  m_Enabled: 1
  serializedVersion: 2
  m_ClearFlags: 2
  m_BackGroundColor: {r: 0, g: 0, b: 0, a: 0}
  m_projectionMatrixMode: 1
  m_SensorSize: {x: 36, y: 24}
  m_LensShift: {x: 0, y: 0}
  m_FocalLength: 50
  m_NormalizedViewPortRect:
    serializedVersion: 2
    x: 0
    y: 0
    width: 1
    height: 1
  near clip plane: 0.3
  far clip plane: 1000
  field of view: 60
  orthographic: 0
  orthographic size: 5
  m_Depth: -1
  m_CullingMask:
    serializedVersion: 2
    m_Bits: 4294967295
  m_RenderingPath: -1
  m_TargetTexture: {fileID: 0}
  m_TargetDisplay: 0
  m_TargetEye: 3
  m_HDR: 0
  m_AllowMSAA: 1
  m_AllowDynamicResolution: 0
  m_ForceIntoRT: 0
  m_OcclusionCulling: 1
  m_StereoConvergence: 10
  m_StereoSeparation: 0.022
--- !u!4 &78842938
Transform:
  m_ObjectHideFlags: 0
  m_CorrespondingSourceObject: {fileID: 0}
  m_PrefabInternal: {fileID: 0}
  m_GameObject: {fileID: 78842933}
  m_LocalRotation: {x: 0, y: 0, z: 0, w: 1}
  m_LocalPosition: {x: 0, y: 0, z: -10}
  m_LocalScale: {x: 1, y: 1, z: 1}
  m_Children: []
  m_Father: {fileID: 0}
  m_RootOrder: 0
  m_LocalEulerAnglesHint: {x: 0, y: 0, z: 0}
--- !u!114 &78842939
MonoBehaviour:
  m_ObjectHideFlags: 0
  m_CorrespondingSourceObject: {fileID: 0}
  m_PrefabInternal: {fileID: 0}
  m_GameObject: {fileID: 78842933}
  m_Enabled: 1
  m_EditorHideFlags: 0
  m_Script: {fileID: 11500000, guid: b7e887b868f5fff47bfdb10dba3bf0b0, type: 3}
  m_Name: 
  m_EditorClassIdentifier: 
  ThunderAndLightningScript: {fileID: 0}
  LightningBoltScript: {fileID: 0}
  CloudParticleSystem: {fileID: 0}
  MoveSpeed: 25
  EnableMouseLook: 0
--- !u!1001 &1346318314
Prefab:
  m_ObjectHideFlags: 0
  serializedVersion: 2
  m_Modification:
    m_TransformParent: {fileID: 0}
    m_Modifications:
    - target: {fileID: 449494, guid: a65dfec3e230d9240b38cdc987f503af, type: 2}
      propertyPath: m_LocalPosition.x
      value: 3
      objectReference: {fileID: 0}
    - target: {fileID: 449494, guid: a65dfec3e230d9240b38cdc987f503af, type: 2}
      propertyPath: m_LocalPosition.y
      value: 0
      objectReference: {fileID: 0}
    - target: {fileID: 449494, guid: a65dfec3e230d9240b38cdc987f503af, type: 2}
      propertyPath: m_LocalPosition.z
      value: 0
      objectReference: {fileID: 0}
    - target: {fileID: 449494, guid: a65dfec3e230d9240b38cdc987f503af, type: 2}
      propertyPath: m_LocalRotation.x
      value: 0
      objectReference: {fileID: 0}
    - target: {fileID: 449494, guid: a65dfec3e230d9240b38cdc987f503af, type: 2}
      propertyPath: m_LocalRotation.y
      value: 0.7071068
      objectReference: {fileID: 0}
    - target: {fileID: 449494, guid: a65dfec3e230d9240b38cdc987f503af, type: 2}
      propertyPath: m_LocalRotation.z
      value: 0
      objectReference: {fileID: 0}
    - target: {fileID: 449494, guid: a65dfec3e230d9240b38cdc987f503af, type: 2}
      propertyPath: m_LocalRotation.w
      value: 0.7071067
      objectReference: {fileID: 0}
    - target: {fileID: 449494, guid: a65dfec3e230d9240b38cdc987f503af, type: 2}
      propertyPath: m_RootOrder
      value: 2
      objectReference: {fileID: 0}
    - target: {fileID: 11441796, guid: a65dfec3e230d9240b38cdc987f503af, type: 2}
      propertyPath: MultiThreaded
      value: 1
      objectReference: {fileID: 0}
    - target: {fileID: 11441796, guid: a65dfec3e230d9240b38cdc987f503af, type: 2}
      propertyPath: Camera
      value: 
      objectReference: {fileID: 78842937}
    - target: {fileID: 11441796, guid: a65dfec3e230d9240b38cdc987f503af, type: 2}
      propertyPath: GlowTintColor.r
      value: 0.29411763
      objectReference: {fileID: 0}
    - target: {fileID: 11441796, guid: a65dfec3e230d9240b38cdc987f503af, type: 2}
      propertyPath: GlowTintColor.g
      value: 0.37254903
      objectReference: {fileID: 0}
    - target: {fileID: 11441796, guid: a65dfec3e230d9240b38cdc987f503af, type: 2}
      propertyPath: JitterMultiplier
      value: 0.05
      objectReference: {fileID: 0}
    - target: {fileID: 11441796, guid: a65dfec3e230d9240b38cdc987f503af, type: 2}
      propertyPath: Turbulence
      value: 0.03
      objectReference: {fileID: 0}
    - target: {fileID: 11441796, guid: a65dfec3e230d9240b38cdc987f503af, type: 2}
      propertyPath: CountRange.Maximum
      value: 8
      objectReference: {fileID: 0}
    - target: {fileID: 11441796, guid: a65dfec3e230d9240b38cdc987f503af, type: 2}
      propertyPath: CountProbabilityModifier
      value: 0.75
      objectReference: {fileID: 0}
    - target: {fileID: 11441796, guid: a65dfec3e230d9240b38cdc987f503af, type: 2}
      propertyPath: DurationRange.Maximum
      value: 0.3
      objectReference: {fileID: 0}
    - target: {fileID: 11441796, guid: a65dfec3e230d9240b38cdc987f503af, type: 2}
      propertyPath: TrunkWidthRange.Minimum
      value: 0.06
      objectReference: {fileID: 0}
    - target: {fileID: 11441796, guid: a65dfec3e230d9240b38cdc987f503af, type: 2}
      propertyPath: TrunkWidthRange.Maximum
      value: 0.1
      objectReference: {fileID: 0}
    - target: {fileID: 11441796, guid: a65dfec3e230d9240b38cdc987f503af, type: 2}
      propertyPath: ChaosFactor
      value: 0.25
      objectReference: {fileID: 0}
    - target: {fileID: 11441796, guid: a65dfec3e230d9240b38cdc987f503af, type: 2}
      propertyPath: GlowIntensity
      value: 0.5
      objectReference: {fileID: 0}
    - target: {fileID: 11441796, guid: a65dfec3e230d9240b38cdc987f503af, type: 2}
      propertyPath: GlowWidthMultiplier
      value: 4
      objectReference: {fileID: 0}
    - target: {fileID: 11441796, guid: a65dfec3e230d9240b38cdc987f503af, type: 2}
      propertyPath: Forkedness
      value: 0.2
      objectReference: {fileID: 0}
    - target: {fileID: 11441796, guid: a65dfec3e230d9240b38cdc987f503af, type: 2}
      propertyPath: FadePercent
      value: 0.4
      objectReference: {fileID: 0}
    - target: {fileID: 11441796, guid: a65dfec3e230d9240b38cdc987f503af, type: 2}
      propertyPath: GrowthMultiplier
      value: 0.4
      objectReference: {fileID: 0}
    - target: {fileID: 11441796, guid: a65dfec3e230d9240b38cdc987f503af, type: 2}
      propertyPath: ForkEndWidthMultiplier
      value: 0.5
      objectReference: {fileID: 0}
    - target: {fileID: 11441796, guid: a65dfec3e230d9240b38cdc987f503af, type: 2}
      propertyPath: Length
      value: 3
      objectReference: {fileID: 0}
    - target: {fileID: 11441796, guid: a65dfec3e230d9240b38cdc987f503af, type: 2}
      propertyPath: LevelOfDetailDistance
      value: 15
      objectReference: {fileID: 0}
    m_RemovedComponents: []
  m_SourcePrefab: {fileID: 100100000, guid: a65dfec3e230d9240b38cdc987f503af, type: 2}
  m_RootGameObject: {fileID: 1735060001}
  m_IsPrefabAsset: 0
--- !u!1 &1735060001
GameObject:
  m_ObjectHideFlags: 0
  m_CorrespondingSourceObject: {fileID: 199960, guid: a65dfec3e230d9240b38cdc987f503af,
    type: 2}
  m_PrefabInternal: {fileID: 1346318314}
  serializedVersion: 6
  m_Component:
  - component: {fileID: 1735060003}
  - component: {fileID: 1735060002}
  m_Layer: 0
  m_Name: LightningBoltShapeConePrefab
  m_TagString: Untagged
  m_Icon: {fileID: 0}
  m_NavMeshLayer: 0
  m_StaticEditorFlags: 0
  m_IsActive: 1
--- !u!114 &1735060002
MonoBehaviour:
  m_ObjectHideFlags: 0
  m_CorrespondingSourceObject: {fileID: 11441796, guid: a65dfec3e230d9240b38cdc987f503af,
    type: 2}
  m_PrefabInternal: {fileID: 1346318314}
  m_GameObject: {fileID: 1735060001}
  m_Enabled: 1
  m_EditorHideFlags: 0
  m_Script: {fileID: 11500000, guid: 701a05011add1114284105a8b31b44ec, type: 3}
  m_Name: 
  m_EditorClassIdentifier: 
  Camera: {fileID: 78842937}
  CameraMode: 0
  UseWorldSpace: 0
  CompensateForParentTransform: 0
  QualitySetting: 0
  MultiThreaded: 1
  LevelOfDetailDistance: 15
  SortLayerName: 
  SortOrderInLayer: 0
  SoftParticlesFactor: 3
  RenderQueue: -1
  LightningMaterialMesh: {fileID: 2100000, guid: c6b8576004384974191b466f0bdef64b,
    type: 2}
  LightningMaterialMeshNoGlow: {fileID: 2100000, guid: db76dde8469c5834887c024ae9f43289,
    type: 2}
  LightningTexture: {fileID: 0}
  LightningGlowTexture: {fileID: 0}
  LightningOriginParticleSystem: {fileID: 0}
  LightningDestinationParticleSystem: {fileID: 0}
  LightningTintColor: {r: 1, g: 1, b: 1, a: 1}
  GlowTintColor: {r: 0.29411763, g: 0.37254903, b: 1, a: 1}
  SourceBlendMode: 5
  DestinationBlendMode: 1
  JitterMultiplier: 0.05
  Turbulence: 0.03
  TurbulenceVelocity: {x: 0, y: 0, z: 0}
  IntensityFlicker: {x: 1, y: 1, z: 1, w: 0}
  IntensityFlickerTexture: {fileID: 0}
  IntervalRange:
    Minimum: 0.05
    Maximum: 0.05
  CountRange:
    Minimum: 2
    Maximum: 8
  CountProbabilityModifier: 0.75
  DelayRange:
    Minimum: 0
    Maximum: 0
  DurationRange:
    Minimum: 0.2
    Maximum: 0.3
  TrunkWidthRange:
    Minimum: 0.06
    Maximum: 0.1
  LifeTime: 0
  Generations: 5
  ChaosFactor: 0.25
  ChaosFactorForks: 0.095
  Intensity: 1
  GlowIntensity: 0.5
  GlowWidthMultiplier: 4
  FadePercent: 0.4
  FadeInMultiplier: 1
  FadeFullyLitMultiplier: 1
  FadeOutMultiplier: 1
  GrowthMultiplier: 0.4
  EndWidthMultiplier: 0.1
  Forkedness: 0.2
  ForkLengthMultiplier: 0.6
  ForkLengthVariance: 0.2
  ForkEndWidthMultiplier: 0.5
  LightParameters:
    RenderMode: 0
    LightColor: {r: 1, g: 1, b: 1, a: 1}
    LightPercent: 0.000001
    LightShadowPercent: 0
    LightIntensity: 0.5
    BounceIntensity: 0
    ShadowStrength: 1
    ShadowBias: 0.05
    ShadowNormalBias: 0.4
    LightRange: 0
    CullingMask:
      serializedVersion: 2
      m_Bits: 4294967295
    OrthographicOffset: 0
    FadeInMultiplier: 1
    FadeFullyLitMultiplier: 1
    FadeOutMultiplier: 1
  MaximumLightsPerBatch: 8
  ManualMode: 0
  AutomaticModeSeconds: 0
  CustomTransformHandler:
    m_PersistentCalls:
      m_Calls: []
    m_TypeName: DigitalRuby.ThunderAndLightning.LightningCustomTransformDelegate,
      Assembly-CSharp, Version=0.0.0.0, Culture=neutral, PublicKeyToken=null
  InnerRadius: 0.15
  OuterRadius: 3
  Length: 3
--- !u!4 &1735060003
Transform:
  m_ObjectHideFlags: 0
  m_CorrespondingSourceObject: {fileID: 449494, guid: a65dfec3e230d9240b38cdc987f503af,
    type: 2}
  m_PrefabInternal: {fileID: 1346318314}
  m_GameObject: {fileID: 1735060001}
  m_LocalRotation: {x: 0, y: 0.7071068, z: 0, w: 0.7071067}
  m_LocalPosition: {x: 3, y: 0, z: 0}
  m_LocalScale: {x: 1, y: 1, z: 1}
  m_Children: []
  m_Father: {fileID: 0}
  m_RootOrder: 2
  m_LocalEulerAnglesHint: {x: 0, y: 0, z: 0}
--- !u!1 &1782504695
GameObject:
  m_ObjectHideFlags: 0
  m_CorrespondingSourceObject: {fileID: 163822, guid: b218bf5f424256540b6996f80414d6b0,
    type: 2}
  m_PrefabInternal: {fileID: 1893070997}
  serializedVersion: 6
  m_Component:
  - component: {fileID: 1782504697}
  - component: {fileID: 1782504696}
  m_Layer: 0
  m_Name: LightningBoltShapeSpherePrefab
  m_TagString: Untagged
  m_Icon: {fileID: 0}
  m_NavMeshLayer: 0
  m_StaticEditorFlags: 0
  m_IsActive: 1
--- !u!114 &1782504696
MonoBehaviour:
  m_ObjectHideFlags: 0
  m_CorrespondingSourceObject: {fileID: 11494734, guid: b218bf5f424256540b6996f80414d6b0,
    type: 2}
  m_PrefabInternal: {fileID: 1893070997}
  m_GameObject: {fileID: 1782504695}
  m_Enabled: 1
  m_EditorHideFlags: 0
  m_Script: {fileID: 11500000, guid: 8d243770104e35341ac9c388b9dd58fc, type: 3}
  m_Name: 
  m_EditorClassIdentifier: 
  Camera: {fileID: 78842937}
  CameraMode: 0
  UseWorldSpace: 0
  CompensateForParentTransform: 0
  QualitySetting: 0
  MultiThreaded: 1
  LevelOfDetailDistance: 15
  SortLayerName: 
  SortOrderInLayer: 0
  SoftParticlesFactor: 3
  RenderQueue: -1
  LightningMaterialMesh: {fileID: 2100000, guid: c6b8576004384974191b466f0bdef64b,
    type: 2}
  LightningMaterialMeshNoGlow: {fileID: 2100000, guid: db76dde8469c5834887c024ae9f43289,
    type: 2}
  LightningTexture: {fileID: 0}
  LightningGlowTexture: {fileID: 0}
  LightningOriginParticleSystem: {fileID: 0}
  LightningDestinationParticleSystem: {fileID: 0}
  LightningTintColor: {r: 1, g: 1, b: 1, a: 1}
  GlowTintColor: {r: 0.1, g: 0.2, b: 1, a: 1}
  SourceBlendMode: 5
  DestinationBlendMode: 1
  JitterMultiplier: 0.15
  Turbulence: 0.05
  TurbulenceVelocity: {x: 0, y: 0, z: 0}
  IntensityFlicker: {x: 1, y: 1, z: 1, w: 0}
  IntensityFlickerTexture: {fileID: 0}
  IntervalRange:
    Minimum: 0.1
    Maximum: 0.2
  CountRange:
    Minimum: 2
    Maximum: 10
  CountProbabilityModifier: 1
  DelayRange:
    Minimum: 0
    Maximum: 0
  DurationRange:
    Minimum: 0.75
    Maximum: 1.5
  TrunkWidthRange:
    Minimum: 0.01
    Maximum: 0.03
  LifeTime: 0
  Generations: 5
  ChaosFactor: 0.2
  ChaosFactorForks: 0.095
  Intensity: 1
  GlowIntensity: 0.5
  GlowWidthMultiplier: 8
  FadePercent: 0.5
  FadeInMultiplier: 1
  FadeFullyLitMultiplier: 1
  FadeOutMultiplier: 1
  GrowthMultiplier: 0.1
  EndWidthMultiplier: 0.25
  Forkedness: 0.75
  ForkLengthMultiplier: 0.6
  ForkLengthVariance: 0.2
  ForkEndWidthMultiplier: 1
  LightParameters:
    RenderMode: 0
    LightColor: {r: 1, g: 1, b: 1, a: 1}
    LightPercent: 0.000001
    LightShadowPercent: 0
    LightIntensity: 0.5
    BounceIntensity: 0
    ShadowStrength: 1
    ShadowBias: 0.05
    ShadowNormalBias: 0.4
    LightRange: 0
    CullingMask:
      serializedVersion: 2
      m_Bits: 4294967295
    OrthographicOffset: 0
    FadeInMultiplier: 1
    FadeFullyLitMultiplier: 1
    FadeOutMultiplier: 1
  MaximumLightsPerBatch: 8
  ManualMode: 0
  AutomaticModeSeconds: 0
  CustomTransformHandler:
    m_PersistentCalls:
      m_Calls: []
    m_TypeName: DigitalRuby.ThunderAndLightning.LightningCustomTransformDelegate,
      Assembly-CSharp, Version=0.0.0.0, Culture=neutral, PublicKeyToken=null
  InnerRadius: 0.1
  Radius: 4
--- !u!4 &1782504697
Transform:
  m_ObjectHideFlags: 0
  m_CorrespondingSourceObject: {fileID: 424252, guid: b218bf5f424256540b6996f80414d6b0,
    type: 2}
  m_PrefabInternal: {fileID: 1893070997}
  m_GameObject: {fileID: 1782504695}
  m_LocalRotation: {x: 0, y: 0, z: 0, w: 1}
  m_LocalPosition: {x: -3, y: 0, z: 0}
  m_LocalScale: {x: 1, y: 1, z: 1}
  m_Children: []
  m_Father: {fileID: 0}
  m_RootOrder: 1
  m_LocalEulerAnglesHint: {x: 0, y: 0, z: 0}
--- !u!1001 &1893070997
Prefab:
  m_ObjectHideFlags: 0
  serializedVersion: 2
  m_Modification:
    m_TransformParent: {fileID: 0}
    m_Modifications:
    - target: {fileID: 424252, guid: b218bf5f424256540b6996f80414d6b0, type: 2}
      propertyPath: m_LocalPosition.x
      value: -3
      objectReference: {fileID: 0}
    - target: {fileID: 424252, guid: b218bf5f424256540b6996f80414d6b0, type: 2}
      propertyPath: m_LocalPosition.y
      value: 0
      objectReference: {fileID: 0}
    - target: {fileID: 424252, guid: b218bf5f424256540b6996f80414d6b0, type: 2}
      propertyPath: m_LocalPosition.z
      value: 0
      objectReference: {fileID: 0}
    - target: {fileID: 424252, guid: b218bf5f424256540b6996f80414d6b0, type: 2}
      propertyPath: m_LocalRotation.x
      value: 0
      objectReference: {fileID: 0}
    - target: {fileID: 424252, guid: b218bf5f424256540b6996f80414d6b0, type: 2}
      propertyPath: m_LocalRotation.y
      value: 0
      objectReference: {fileID: 0}
    - target: {fileID: 424252, guid: b218bf5f424256540b6996f80414d6b0, type: 2}
      propertyPath: m_LocalRotation.z
      value: 0
      objectReference: {fileID: 0}
    - target: {fileID: 424252, guid: b218bf5f424256540b6996f80414d6b0, type: 2}
      propertyPath: m_LocalRotation.w
      value: 1
      objectReference: {fileID: 0}
    - target: {fileID: 424252, guid: b218bf5f424256540b6996f80414d6b0, type: 2}
      propertyPath: m_RootOrder
      value: 1
      objectReference: {fileID: 0}
    - target: {fileID: 11494734, guid: b218bf5f424256540b6996f80414d6b0, type: 2}
      propertyPath: Camera
      value: 
      objectReference: {fileID: 78842937}
    - target: {fileID: 11494734, guid: b218bf5f424256540b6996f80414d6b0, type: 2}
      propertyPath: MultiThreaded
      value: 1
      objectReference: {fileID: 0}
    - target: {fileID: 11494734, guid: b218bf5f424256540b6996f80414d6b0, type: 2}
      propertyPath: LevelOfDetailDistance
      value: 15
      objectReference: {fileID: 0}
    m_RemovedComponents: []
  m_SourcePrefab: {fileID: 100100000, guid: b218bf5f424256540b6996f80414d6b0, type: 2}
  m_RootGameObject: {fileID: 1782504695}
  m_IsPrefabAsset: 0
