%YAML 1.1
%TAG !u! tag:unity3d.com,2011:
--- !u!1 &158454
GameObject:
  m_ObjectHideFlags: 0
  m_CorrespondingSourceObject: {fileID: 0}
  m_PrefabInternal: {fileID: 100100000}
  serializedVersion: 6
  m_Component:
  - component: {fileID: 478458}
  - component: {fileID: 11441356}
  m_Layer: 0
  m_Name: LightningBoltBasePrefab
  m_TagString: Untagged
  m_Icon: {fileID: 0}
  m_NavMeshLayer: 0
  m_StaticEditorFlags: 0
  m_IsActive: 1
--- !u!4 &478458
Transform:
  m_ObjectHideFlags: 1
  m_CorrespondingSourceObject: {fileID: 0}
  m_PrefabInternal: {fileID: 100100000}
  m_GameObject: {fileID: 158454}
  m_LocalRotation: {x: 0, y: 0, z: 0, w: 1}
  m_LocalPosition: {x: 0, y: 0, z: 0}
  m_LocalScale: {x: 1, y: 1, z: 1}
  m_Children: []
  m_Father: {fileID: 0}
  m_RootOrder: 0
  m_LocalEulerAnglesHint: {x: 0, y: 0, z: 0}
--- !u!114 &11441356
MonoBehaviour:
  m_ObjectHideFlags: 1
  m_CorrespondingSourceObject: {fileID: 0}
  m_PrefabInternal: {fileID: 100100000}
  m_GameObject: {fileID: 158454}
  m_Enabled: 1
  m_EditorHideFlags: 0
  m_Script: {fileID: 11500000, guid: daf89196d51fcf24a88bd071f1e59b25, type: 3}
  m_Name: 
  m_EditorClassIdentifier: 
  Camera: {fileID: 0}
  CameraMode: 0
  UseWorldSpace: 1
  CompensateForParentTransform: 0
  QualitySetting: 0
  MultiThreaded: 0
  LevelOfDetailDistance: 0
  SortLayerName: 
  SortOrderInLayer: 0
  SoftParticlesFactor: 3
  RenderQueue: -1
  LightningMaterialMesh: {fileID: 2100000, guid: c6b8576004384974191b466f0bdef64b,
    type: 2}
  LightningMaterialMeshNoGlow: {fileID: 2100000, guid: db76dde8469c5834887c024ae9f43289,
    type: 2}
  LightningTexture: {fileID: 2800000, guid: 51e598d31382bd740958e33ab6c64a66, type: 3}
  LightningGlowTexture: {fileID: 2800000, guid: cab73e4c670527a4aae0af0c436a4350,
    type: 3}
  LightningOriginParticleSystem: {fileID: 0}
  LightningDestinationParticleSystem: {fileID: 0}
  LightningTintColor: {r: 1, g: 1, b: 1, a: 1}
  GlowTintColor: {r: 0.1, g: 0.2, b: 1, a: 1}
  SourceBlendMode: 5
  DestinationBlendMode: 1
  JitterMultiplier: 0
  Turbulence: 0
  TurbulenceVelocity: {x: 0, y: 0, z: 0}
  IntensityFlicker: {x: 1, y: 1, z: 1, w: 0}
  IntensityFlickerTexture: {fileID: 0}
--- !u!1001 &100100000
Prefab:
  m_ObjectHideFlags: 1
  serializedVersion: 2
  m_Modification:
    m_TransformParent: {fileID: 0}
    m_Modifications: []
    m_RemovedComponents: []
  m_SourcePrefab: {fileID: 0}
  m_RootGameObject: {fileID: 158454}
  m_IsPrefabAsset: 1
