%YAML 1.1
%TAG !u! tag:unity3d.com,2011:
--- !u!1 &132508
GameObject:
  m_ObjectHideFlags: 0
  m_CorrespondingSourceObject: {fileID: 0}
  m_PrefabInternal: {fileID: 100100000}
  serializedVersion: 6
  m_Component:
  - component: {fileID: 417948}
  - component: {fileID: 11401034}
  m_Layer: 0
  m_Name: LightningMeshSurfacePrefab
  m_TagString: Untagged
  m_Icon: {fileID: 0}
  m_NavMeshLayer: 0
  m_StaticEditorFlags: 0
  m_IsActive: 1
--- !u!4 &417948
Transform:
  m_ObjectHideFlags: 1
  m_CorrespondingSourceObject: {fileID: 0}
  m_PrefabInternal: {fileID: 100100000}
  m_GameObject: {fileID: 132508}
  m_LocalRotation: {x: 0, y: 0, z: 0, w: 1}
  m_LocalPosition: {x: 0, y: 0, z: 0}
  m_LocalScale: {x: 1, y: 1, z: 1}
  m_Children: []
  m_Father: {fileID: 0}
  m_RootOrder: 0
  m_LocalEulerAnglesHint: {x: 0, y: 0, z: 0}
--- !u!114 &11401034
MonoBehaviour:
  m_ObjectHideFlags: 1
  m_CorrespondingSourceObject: {fileID: 0}
  m_PrefabInternal: {fileID: 100100000}
  m_GameObject: {fileID: 132508}
  m_Enabled: 1
  m_EditorHideFlags: 0
  m_Script: {fileID: 11500000, guid: da1c0c1ee6ed57b428e24f7fd4b8033b, type: 3}
  m_Name: 
  m_EditorClassIdentifier: 
  Camera: {fileID: 0}
  CameraMode: 0
  UseWorldSpace: 1
  CompensateForParentTransform: 0
  QualitySetting: 0
  MultiThreaded: 0
  LevelOfDetailDistance: 0
  SortLayerName: 
  SortOrderInLayer: 0
  SoftParticlesFactor: 100
  RenderQueue: -1
  LightningMaterialMesh: {fileID: 2100000, guid: c6b8576004384974191b466f0bdef64b,
    type: 2}
  LightningMaterialMeshNoGlow: {fileID: 2100000, guid: db76dde8469c5834887c024ae9f43289,
    type: 2}
  LightningTexture: {fileID: 2800000, guid: 51e598d31382bd740958e33ab6c64a66, type: 3}
  LightningGlowTexture: {fileID: 2800000, guid: cab73e4c670527a4aae0af0c436a4350,
    type: 3}
  LightningOriginParticleSystem: {fileID: 0}
  LightningDestinationParticleSystem: {fileID: 0}
  LightningTintColor: {r: 1, g: 1, b: 1, a: 1}
  GlowTintColor: {r: 0.1, g: 0.2, b: 1, a: 1}
  SourceBlendMode: 5
  DestinationBlendMode: 1
  JitterMultiplier: 0.5
  Turbulence: 0.05
  TurbulenceVelocity: {x: 0, y: 0, z: 0}
  IntensityFlicker: {x: 1, y: 1, z: 1, w: 0}
  IntensityFlickerTexture: {fileID: 0}
  IntervalRange:
    Minimum: 0.05
    Maximum: 0.1
  CountRange:
    Minimum: 1
    Maximum: 4
  CountProbabilityModifier: 1
  DelayRange:
    Minimum: 0.02
    Maximum: 0.04
  DurationRange:
    Minimum: 0.15
    Maximum: 0.3
  TrunkWidthRange:
    Minimum: 0.01
    Maximum: 0.02
  LifeTime: 0
  Generations: 2
  ChaosFactor: 0.2
  ChaosFactorForks: 0.095
  Intensity: 1
  GlowIntensity: 1.2
  GlowWidthMultiplier: 12
  FadePercent: 0.4
  FadeInMultiplier: 1
  FadeFullyLitMultiplier: 1
  FadeOutMultiplier: 1
  GrowthMultiplier: 0.4
  EndWidthMultiplier: 1
  Forkedness: 0.25
  ForkLengthMultiplier: 0.4
  ForkLengthVariance: 0.4
  ForkEndWidthMultiplier: 1
  LightParameters:
    RenderMode: 0
    LightColor: {r: 0.3602941, g: 0.5235293, b: 1, a: 1}
    LightPercent: 0.1
    LightShadowPercent: 0
    LightIntensity: 1
    BounceIntensity: 0
    ShadowStrength: 1
    ShadowBias: 0.05
    ShadowNormalBias: 0.4
    LightRange: 2.4
    CullingMask:
      serializedVersion: 2
      m_Bits: 4294967295
    OrthographicOffset: 0
    FadeInMultiplier: 1
    FadeFullyLitMultiplier: 1
    FadeOutMultiplier: 1
  MaximumLightsPerBatch: 16
  ManualMode: 0
  AutomaticModeSeconds: 0
  CustomTransformHandler:
    m_PersistentCalls:
      m_Calls: []
    m_TypeName: DigitalRuby.ThunderAndLightning.LightningCustomTransformDelegate,
      Assembly-CSharp, Version=0.0.0.0, Culture=neutral, PublicKeyToken=null
  MeshFilter: {fileID: 0}
  MeshCollider: {fileID: 0}
  MeshOffsetRange:
    Minimum: 0.05
    Maximum: 0.1
  PathLengthCount:
    Minimum: 3
    Maximum: 16
  MinimumPathDistanceRange:
    Minimum: 0.1
    Maximum: 0.4
  MaximumPathDistance: 2
  Spline: 1
  DistancePerSegmentHint: 0.15
--- !u!1001 &100100000
Prefab:
  m_ObjectHideFlags: 1
  serializedVersion: 2
  m_Modification:
    m_TransformParent: {fileID: 0}
    m_Modifications: []
    m_RemovedComponents: []
  m_SourcePrefab: {fileID: 0}
  m_RootGameObject: {fileID: 132508}
  m_IsPrefabAsset: 1
